$MeshFormat
2.2 0 8
$EndMeshFormat
$PhysicalNames
9
0 1 "N_NO"
0 2 "N_NW"
0 3 "N_SO"
0 4 "N_spring"
1 5 "S_N"
1 6 "S_O"
1 7 "S_fixedy"
1 8 "S_fixedx"
2 9 "V_square"
$EndPhysicalNames
$Nodes
16
1 -0.5 -0.5 0
2 0.5 -0.5 0
3 0.5 0.5 0
4 -0.5 0.5 0
5 -0.1666666666675909 -0.5 0
6 0.1666666666657427 -0.5 0
7 0.5 -0.1666666666675909 0
8 0.5 0.1666666666657427 0
9 0.1666666666675909 0.5 0
10 -0.1666666666657427 0.5 0
11 -0.5 0.1666666666675909 0
12 -0.5 -0.1666666666657427 0
13 -0.1666666666669749 -0.1666666666663587 0
14 -0.1666666666663587 0.1666666666669749 0
15 0.1666666666663588 -0.1666666666669748 0
16 0.1666666666669748 0.1666666666663588 0
$EndNodes
$Elements
25
1 15 2 4 1 1
2 15 2 3 2 2
3 15 2 1 3 3
4 15 2 2 4 4
5 1 2 7 1 1 5
6 1 2 7 1 5 6
7 1 2 7 1 6 2
8 1 2 6 2 2 7
9 1 2 6 2 7 8
10 1 2 6 2 8 3
11 1 2 5 3 3 9
12 1 2 5 3 9 10
13 1 2 5 3 10 4
14 1 2 8 4 4 11
15 1 2 8 4 11 12
16 1 2 8 4 12 1
17 3 2 9 1 1 5 13 12
18 3 2 9 1 12 13 14 11
19 3 2 9 1 11 14 10 4
20 3 2 9 1 5 6 15 13
21 3 2 9 1 13 15 16 14
22 3 2 9 1 14 16 9 10
23 3 2 9 1 6 2 7 15
24 3 2 9 1 15 7 8 16
25 3 2 9 1 16 8 3 9
$EndElements
