
0                         1.5472949071917357E-7
8.33E-4                   -0.0037480601783444418
0.001667                  -0.007483252811518766
0.0025                    -0.01119038758947246
0.003333                  -0.014873669190504923
0.004167                  -0.01853795046663001
0.005                     -0.022174472941127593
0.005833                  -0.02578773243132182
0.006667                  -0.029382074492382518
0.0075                    -0.032948940976457355
0.008333                  -0.03649272168125831
0.009167                  -0.040017683434625556
0.01                      -0.04351543350681279
0.010833                  -0.04699027905674439
0.011667                  -0.05044640482921306
0.0125                    -0.05387558357096055
0.013333                  -0.05728204010674685
0.014167                  -0.060669877828878546
0.015                     -0.0640310336009809
0.015833                  -0.06736965055520465
0.016667                  -0.0706897513702257
0.0175                    -0.07398343568436022
0.018333                  -0.07725476557615671
0.019167                  -0.08050768365523418
0.02                      -0.08373445098498225
0.020833                  -0.0869390492334922
0.021667                  -0.09012534158953964
0.0225                    -0.09328574918549462
0.023333                  -0.09642417392592624
0.024167                  -0.09954440023043108
0.025                     -0.10263900793823262
0.025833                  -0.10571181984085018
0.026667                  -0.10876654224363827
0.0275                    -0.11179591232488792
0.028333                  -0.11480367441691844
0.029167                  -0.1177934573687855
0.03                      -0.120758154324883
0.030833                  -0.12370143181530316
0.031667                  -0.1266268418935536
0.0325                    -0.12952743229239602
0.033333                  -0.1324067923995774
0.034167                  -0.13526839813643718
0.035                     -0.13810545044198527
0.035833                  -0.14092146222422272
0.036667                  -0.14371983393808863
0.0375                    -0.14649391834280218
0.038333                  -0.14924715253166387
0.039167                  -0.15198286216124632
0.04                      -0.15469455042126704
0.040833                  -0.15738557925778665
0.041667                  -0.1600592001989938
0.0425                    -0.16270906547228448
0.043333                  -0.16533846254594264
0.044167                  -0.16795056949165782
0.045                     -0.1705391861787725
0.045833                  -0.17310752626933884
0.046667                  -0.17565869505183207
0.0475                    -0.17818663863968948
0.048333                  -0.1806944975616383
0.049167                  -0.18318530499805152
0.05                      -0.18565315190613801
0.050833                  -0.18810110635614605
0.051667                  -0.19053213009635478
0.0525                    -0.19294045752605804
0.053333                  -0.19532908493290982
0.054167                  -0.1977009033104346
0.055                     -0.2000502890967797
0.055833                  -0.20238016747424065
0.056667                  -0.20469335935968064
0.0575                    -0.20698438182599574
0.058333                  -0.20925608962825168
0.059167                  -0.21151123428553223
0.06                      -0.21374447210067604
0.060833                  -0.21595858808051954
0.061667                  -0.21815626502574925
0.0625                    -0.22033229706409374
0.063333                  -0.22248940013372762
0.064167                  -0.22463018899679188
0.065                     -0.22674959420080576
0.065833                  -0.22885026329536562
0.066667                  -0.23093474368409284
0.0675                    -0.23299810092958562
0.068333                  -0.23504291487318513
0.069167                  -0.23707166624021522
0.07                      -0.23907955420419266
0.070833                  -0.2410690915787903
0.071667                  -0.24304269309092735
0.0725                    -0.24499569012209332
0.073333                  -0.24693052913889083
0.074167                  -0.248849559549181
0.075                     -0.2507482435404771
0.075833                  -0.25262896191321393
0.076667                  -0.25449399943566464
0.0775                    -0.25633894770151316
0.078333                  -0.25816612252341864
0.079167                  -0.2599777447099418
0.08                      -0.2617695338620808
0.080833                  -0.2635437414850552
0.081667                  -0.2653025251052494
0.0825                    -0.2670417309348465
0.083333                  -0.26876354685060344
0.084167                  -0.27047006777387955
0.085                     -0.27215726513439853
0.085833                  -0.27382726385846934
0.086667                  -0.27548209693889025
0.0875                    -0.2771178596316436
0.088333                  -0.27873661459002136
0.089167                  -0.28034033355318766
0.09                      -0.28192523421565424
0.090833                  -0.2834933176334737
0.091667                  -0.28504649496650514
0.0925                    -0.28658110496255246
0.093333                  -0.28809908775576126
0.094167                  -0.28960229459894643
0.095                     -0.29108718391216654
0.095833                  -0.2925556355809983
0.096667                  -0.2940094416225938
0.0975                    -0.29544517875136
0.098333                  -0.29686466727681315
0.099167                  -0.2982696406495792
0.1                       -0.2996567925051193
0.100833                  -0.30102788424718563
0.101667                  -0.3023845914279242
0.1025                    -0.3037237232341553
0.103333                  -0.3050469828330797
0.104167                  -0.30635598854394364
0.105                     -0.3076476637401315
0.105833                  -0.3089236540193894
0.106667                  -0.3101855211318556
0.1075                    -0.31143030127742305
0.108333                  -0.3126595831493747
0.109167                  -0.3138748725905961
0.11                      -0.3150733172720805
0.110833                  -0.3162564496457979
0.111667                  -0.3174257203070119
0.1125                    -0.3185783870474774
0.113333                  -0.3197159267390232
0.114167                  -0.3208397353862281
0.115                     -0.3219471795570428
0.115833                  -0.32303968120161086
0.116667                  -0.32411858238881375
0.1175                    -0.32518135712332996
0.118333                  -0.3262293730900663
0.119167                  -0.3272639190743643
0.12                      -0.3282825751841561
0.120833                  -0.32928665549294767
0.121667                  -0.3302773961520464
0.1225                    -0.3312524820451967
0.123333                  -0.33221317428556496
0.124167                  -0.333160657038013
0.125                     -0.3340927186399719
0.125833                  -0.33501056789304573
0.126667                  -0.33591533761843706
0.1275                    -0.3368049182932701
0.128333                  -0.33768046705333016
0.129167                  -0.3385430660178492
0.13                      -0.3393907064945506
0.130833                  -0.3402244945962173
0.131667                  -0.3410454623782424
0.1325                    -0.34185170067703374
0.133333                  -0.34264426522228564
0.134167                  -0.3434241386405561
0.135                     -0.3441895100019017
0.135833                  -0.34494138528971463
0.136667                  -0.3456806983336863
0.1375                    -0.34640573514935374
0.138333                  -0.3471174526075547
0.139167                  -0.3478167363696878
0.14                      -0.34850196811581863
0.140833                  -0.3491740562348521
0.141667                  -0.34983383884493463
0.1425                    -0.3504797920174233
0.143333                  -0.3511127762860488
0.144167                  -0.35173358284786416
0.145                     -0.3523407808991599
0.145833                  -0.35293518374255084
0.146667                  -0.35351753627208365
0.1475                    -0.3540864995505922
0.148333                  -0.3546428402699361
0.149167                  -0.3551872576358346
0.15                      -0.3557185033270966
0.150833                  -0.3562372980413502
0.151667                  -0.3567442959074492
0.1525                    -0.3572383379769199
0.153333                  -0.3577200995669195
0.154167                  -0.3581901903361255
0.155                     -0.3586475394746891
0.155833                  -0.3590927775282637
0.156667                  -0.35952647028933055
0.1575                    -0.3599476338597839
0.158333                  -0.36035685461966493
0.159167                  -0.3607546550949764
0.16                      -0.36114013708111153
0.160833                  -0.36151384339422205
0.161667                  -0.36187625389000005
0.1625                    -0.3622265548470156
0.163333                  -0.3625652461161156
0.164167                  -0.362892765473927
0.165                     -0.36320838248141457
0.165833                  -0.363512554617727
0.166667                  -0.36380567816869114
0.1675                    -0.36408710478459605
0.168333                  -0.36435725016316434
0.169167                  -0.36461646968315026
0.17                      -0.36486419590019786
0.170833                  -0.36510080331647377
0.171667                  -0.3653266069835823
0.1725                    -0.3655411191869736
0.173333                  -0.36574467381572
0.174167                  -0.3659375461691513
0.175                     -0.36611932709675
0.175833                  -0.366290310451808
0.176667                  -0.36645073235314496
0.1775                    -0.366600261056463
0.178333                  -0.36673915095330467
0.179167                  -0.36686759954863285
0.18                      -0.36698535135659494
0.180833                  -0.3670926218757611
0.181667                  -0.36718957056038837
0.1825                    -0.36727601704374413
0.183333                  -0.3673521384966723
0.184167                  -0.36741805688090545
0.185                     -0.36747366581900687
0.185833                  -0.36751910471516414
0.186667                  -0.3675544585919899
0.1875                    -0.3675796939413621
0.188333                  -0.36759491295671287
0.189167                  -0.36760016427136144
0.19                      -0.36759548613538046
0.190833                  -0.36758094408310926
0.191667                  -0.3675565509040308
0.1925                    -0.3675224155043229
0.193333                  -0.36747856730731854
0.194167                  -0.3674249837982935
0.195                     -0.3673618434484495
0.195833                  -0.3672891401123128
0.196667                  -0.3672068165075031
0.1975                    -0.3671151195871987
0.198333                  -0.36701400817610674
0.199167                  -0.3669033907551442
0.2                       -0.3667835816871089
0.200833                  -0.36665450530024574
0.201667                  -0.36651603636598856
0.2025                    -0.36636855559346165
0.203333                  -0.36621195334375417
0.204167                  -0.36604607120104826
0.205                     -0.3658713551672523
0.205833                  -0.36568766216141946
0.206667                  -0.36549480109721244
0.2075                    -0.3652932822266726
0.208333                  -0.36508292954615057
0.209167                  -0.36486351981207243
0.21                      -0.3646356264925615
0.210833                  -0.3643990411768436
0.211667                  -0.3641535089721157
0.2125                    -0.36389966553891784
0.213333                  -0.36363727056976813
0.214167                  -0.36336603802631695
0.215                     -0.36308666474730406
0.215833                  -0.3627988790349413
0.216667                  -0.36250236420336535
0.2175                    -0.36219787726622643
0.218333                  -0.36188511563612247
0.219167                  -0.36156373247392537
0.22                      -0.3612345439740114
0.220833                  -0.3608972171559164
0.221667                  -0.3605513755163218
0.2225                    -0.36019789344651393
0.223333                  -0.35983640806440326
0.224167                  -0.3594665136871433
0.225                     -0.35908914192858893
0.225833                  -0.3587039004924705
0.226667                  -0.3583103549952848
0.2275                    -0.3579094933102467
0.228333                  -0.3575008942084846
0.229167                  -0.3570840950809417
0.23                      -0.3566601391061186
0.230833                  -0.356228576599923
0.231667                  -0.35578891719769656
0.2325                    -0.3553422584394803
0.233333                  -0.35488812265833164
0.234167                  -0.3544259921992409
0.235                     -0.35395701802992724
0.235833                  -0.35348069496849277
0.236667                  -0.35299647852966276
0.2375                    -0.3525055721852411
0.238333                  -0.35200744370139897
0.239167                  -0.35150152221773917
0.24                      -0.3509890627969566
0.240833                  -0.3504695066109214
0.241667                  -0.3499422568750823
0.2425                    -0.3494086193394701
0.243333                  -0.34886800903458937
0.244167                  -0.3483198036980012
0.245                     -0.3477653588731221
0.245833                  -0.34720406389808084
0.246667                  -0.3466352714727016
0.2475                    -0.34606038605132344
0.248333                  -0.3454787717225455
0.249167                  -0.34488975658509013
0.25                      -0.34429479313066164
0.250833                  -0.34369322063683094
0.251667                  -0.3430843430331456
0.2525                    -0.34246965998462114
0.253333                  -0.34184848639262305
0.254167                  -0.3412201024429342
0.255                     -0.34058605412170645
0.255833                  -0.33994563238244324
0.256667                  -0.33929809408944567
0.2575                    -0.338645030705963
0.258333                  -0.3379857096626846
0.259167                  -0.33731936491866343
0.26                      -0.3366476325820025
0.260833                  -0.335969756978416
0.261667                  -0.33528494957543936
0.2625                    -0.33459489030142886
0.263333                  -0.3338988007931906
0.264167                  -0.333195870432491
0.265                     -0.3324878221557366
0.265833                  -0.3317738553200857
0.266667                  -0.3310531376246049
0.2675                    -0.3303274342096343
0.268333                  -0.329595922558233
0.269167                  -0.3288577490843355
0.27                      -0.32811472033922695
0.270833                  -0.3273659923309523
0.271667                  -0.3266106905826432
0.2725                    -0.32585066227184906
0.273333                  -0.3250850423282529
0.274167                  -0.32431293577120573
0.275                     -0.3235362296315088
0.275833                  -0.3227540381508142
0.276667                  -0.32196544622893103
0.2775                    -0.3211723799848774
0.278333                  -0.3203739333591576
0.279167                  -0.3195691715103307
0.28                      -0.31876005889151393
0.280833                  -0.3179456695228191
0.281667                  -0.3171250491968396
0.2825                    -0.3163001999566535
0.283333                  -0.3154701762777152
0.284167                  -0.31463400495643257
0.285                     -0.3137937248893913
0.285833                  -0.31294837138128045
0.286667                  -0.3120969525959662
0.2875                    -0.31124154355953976
0.288333                  -0.31038116077144773
0.289167                  -0.30951479412526334
0.29                      -0.3086445540588923
0.290833                  -0.30776943863098555
0.291667                  -0.30688841981911463
0.2925                    -0.3060036427676381
0.293333                  -0.3051140874517246
0.294167                  -0.3042187082849529
0.295                     -0.3033196844202778
0.295833                  -0.30241597810358434
0.296667                  -0.3015065265311914
0.2975                    -0.30059354217661566
0.298333                  -0.29967596990553147
0.299167                  -0.2987527300392885
0.3                       -0.2978260676939266
0.300833                  -0.2968949106990507
0.301667                  -0.29595816283888976
0.3025                    -0.2950181012026102
0.303333                  -0.2940736369241423
0.304167                  -0.29312365758410897
0.305                     -0.2921704715842319
0.305833                  -0.2912129736989446
0.306667                  -0.29025003563342533
0.3075                    -0.28928399645203
0.308333                  -0.2883137348996928
0.309167                  -0.2873381071323118
0.31                      -0.2863594822333356
0.310833                  -0.28537672324626545
0.311667                  -0.284388671097
0.3125                    -0.283397724255849
0.313333                  -0.2824027303870924
0.314167                  -0.2814025155023329
0.315                     -0.2803995068353015
0.315833                  -0.2793925369882792
0.316667                  -0.2783804173712556
0.3175                    -0.2773656033649936
0.318333                  -0.2763469128248962
0.319167                  -0.275323142865715
0.32                      -0.27429677640955447
0.320833                  -0.2732666168737565
0.321667                  -0.272231447381911
0.3225                    -0.2711937777988322
0.323333                  -0.27015239740981173
0.324167                  -0.26910607564580424
0.325                     -0.2680573487254582
0.325833                  -0.267004992103195
0.326667                  -0.26594776181200847
0.3275                    -0.2648882198442804
0.328333                  -0.2638251281195554
0.329167                  -0.26275722956498143
0.33                      -0.26168711137299483
0.330833                  -0.2606135222226927
0.331667                  -0.2595351922208699
0.3325                    -0.25845473319725065
0.333333                  -0.25737088087808957
0.334167                  -0.256282352833854
0.335                     -0.25519178497485673
0.335833                  -0.25409790036019786
0.336667                  -0.2529994043021605
0.3375                    -0.25189895624452935
0.338333                  -0.2507952668601005
0.339167                  -0.2496870294776665
0.34                      -0.24857692653533098
0.340833                  -0.24746365659608807
0.341667                  -0.24634590127686753
0.3425                    -0.24522636547813437
0.343333                  -0.24410373592646364
0.344167                  -0.2429766827939248
0.345                     -0.2418479329198079
0.345833                  -0.2407161614635132
0.346667                  -0.23958002741546222
0.3475                    -0.23844227903851758
0.348333                  -0.23730158018958714
0.349167                  -0.23615657893789296
0.35                      -0.23501004446093846
0.350833                  -0.23386062957568135
0.351667                  -0.23270697168527532
0.3525                    -0.23155186038207926
0.353333                  -0.23039393770051025
0.354167                  -0.22923183063040603
0.355                     -0.22806834868584058
0.355833                  -0.2269021233726331
0.356667                  -0.22573177151676624
0.3575                    -0.2245601220676538
0.358333                  -0.22338579625416724
0.359167                  -0.22220740098222028
0.36                      -0.22102778415991373
0.360833                  -0.21984555698459493
0.361667                  -0.21865931668546634
0.3625                    -0.21747192965675297
0.363333                  -0.21628199730918624
0.364167                  -0.21508810743217702
0.365                     -0.21389314444328428
0.365833                  -0.21269570020583622
0.366667                  -0.21149435330489652
0.3675                    -0.2102920057239144
0.368333                  -0.20908724001585824
0.369167                  -0.20787862579284572
0.37                      -0.20666908215410226
0.370833                  -0.20545718257539458
0.371667                  -0.20424148792411817
0.3725                    -0.20302493397240473
0.373333                  -0.2018060853483608
0.374167                  -0.20058349439968826
0.375                     -0.19936011313468807
0.375833                  -0.19813449756087145
0.376667                  -0.1969051917278835
0.3775                    -0.1956751634499966
0.378333                  -0.19444296033753988
0.379167                  -0.1932071183606521
0.38                      -0.19197062071685864
0.380833                  -0.19073200683850502
0.381667                  -0.18948980483270972
0.3825                    -0.1882470128618572
0.383333                  -0.18700216239888923
0.384167                  -0.1857537738991119
0.385                     -0.18450486007996406
0.385833                  -0.18325394466806613
0.386667                  -0.18199954067712434
0.3875                    -0.18074467497465305
0.388333                  -0.179487863751853
0.389167                  -0.1782276127878479
0.39                      -0.17696696270076026
0.390833                  -0.17570442235528883
0.391667                  -0.17443849049903615
0.3925                    -0.17317222110843422
0.393333                  -0.1719041159263233
0.394167                  -0.17063266687023415
0.395                     -0.16936094088734527
0.395833                  -0.16808743280142546
0.396667                  -0.16681062789781914
0.3975                    -0.16553360571320663
0.398333                  -0.16425485435184095
0.399167                  -0.16297285266226721
0.4                       -0.16169069239510717
0.400833                  -0.16040685513134975
0.401667                  -0.15911981347637916
0.4025                    -0.1578326710234168
0.403333                  -0.15654390302529378
0.404167                  -0.1552519760337891
0.405                     -0.15396000512019192
0.405833                  -0.15266645940006954
0.406667                  -0.1513697995600596
0.4075                    -0.15007315178894404
0.408333                  -0.1487749792545828
0.409167                  -0.14747373696338723
0.41                      -0.14617256186689365
0.410833                  -0.1448699113718558
0.411667                  -0.14356423498721974
0.4125                    -0.14225868007753503
0.413333                  -0.14095169847207967
0.414167                  -0.13964173436374727
0.415                     -0.13833194518404945
0.415833                  -0.13702077736718965
0.416667                  -0.13570666996790945
0.4175                    -0.13439279014443029
0.418333                  -0.13307757911528179
0.419167                  -0.1317594709730243
0.42                      -0.13044164226688806
0.420833                  -0.12912252917660766
0.421667                  -0.1278005610070247
0.4225                    -0.12647892336624597
0.423333                  -0.12515604757079216
0.424167                  -0.12383035830924628
0.425                     -0.12250504992163759
0.425833                  -0.12117854903398147
0.426667                  -0.11984927588870749
0.4275                    -0.1185204332345111
0.428333                  -0.11719044317768965
0.429167                  -0.1158577216827823
0.43                      -0.11452547958764303
0.430833                  -0.11319213464826405
0.431667                  -0.11185609871668906
0.4325                    -0.11052059040544876
0.433333                  -0.10918402328649997
0.434167                  -0.10784480526426135
0.435                     -0.10650616241393548
0.435833                  -0.10516650428915782
0.436667                  -0.10382423500856679
0.4375                    -0.1024825878027572
0.438333                  -0.10113996836996744
0.439167                  -0.09979477720418695
0.44                      -0.09845025438677031
0.440833                  -0.09710480192243844
0.441667                  -0.09575681683937723
0.4425                    -0.09440954576906489
0.443333                  -0.09306138718253247
0.444167                  -0.09171073479956345
0.445                     -0.09036084150432623
0.445833                  -0.08901010239228978
0.446667                  -0.087656908031012
0.4475                    -0.08630451726275098
0.448333                  -0.08495132196425852
0.449167                  -0.083595709705347
0.45                      -0.08224094499486692
0.450833                  -0.0808854166462109
0.451667                  -0.07952750938441344
0.4525                    -0.07817049309668632
0.453333                  -0.07681275368646506
0.454167                  -0.0754526731862521
0.455                     -0.07409352657528208
0.455833                  -0.0727336970000587
0.456667                  -0.071371563950629
0.4575                    -0.07001040721542016
0.458333                  -0.06864860733484096
0.459167                  -0.06728454140609703
0.46                      -0.06592149374596208
0.460833                  -0.06455784243865473
0.461667                  -0.06319196233694971
0.4625                    -0.06182714200724925
0.463333                  -0.06046175722670654
0.464167                  -0.05909418075058069
0.465                     -0.05772770511888399
0.465833                  -0.056360703949202416
0.466667                  -0.05499154804570214
0.4675                    -0.05362353364760474
0.468333                  -0.052255032359790426
0.469167                  -0.050884413180435975
0.47                      -0.049514975775898064
0.470833                  -0.04814508988392126
0.471667                  -0.04677312284124305
0.4725                    -0.04540237747071936
0.473333                  -0.044031221787931535
0.474167                  -0.042658021611792524
0.475                     -0.04128608265276515
0.475833                  -0.03991377134829981
0.476667                  -0.03853945214239059
0.4775                    -0.03716643336584531
0.478333                  -0.03579308002117613
0.479167                  -0.034417755319734566
0.48                      -0.03304376994668125
0.480833                  -0.03166948761221465
0.481667                  -0.03029327043671636
0.4825                    -0.028918431194918885
0.483333                  -0.027543332446722694
0.484167                  -0.026166335362606596
0.485                     -0.024790754543355026
0.485833                  -0.023414951539848433
0.486667                  -0.022037286713496994
0.4875                    -0.020661076228330338
0.488333                  -0.01928468076723223
0.489167                  -0.01790646002276315
0.49                      -0.016529731460431112
0.490833                  -0.015152855035585926
0.491667                  -0.013774189911824657
0.4925                    -0.01239705459516179
0.493333                  -0.011019808451448383
0.494167                  -0.009640810252538714
0.495                     -0.008263379221603034
0.495833                  -0.0068858740148652325
0.496667                  -0.005506650801266379
0.4975                    -0.0041290163105926194
0.498333                  -0.0027512456874822814
0.499167                  -0.0013714935581480184
0.5                       4.567991179143186E-17
