#1:iterationCounter 	2:residualErr 	3:incrementalErr 	4:etaLineSearch
0	-1	1	-1
1	-1	0.325594	-1
2	-1	0.0579447	-1
3	-1	0.0135214	-1
4	-1	0.00134772	-1
5	-1	0.000218161	-1
6	-1	2.3579e-05	-1
7	-1	7.8827e-06	-1
8	-1	4.71746e-06	-1
9	-1	4.2549e-07	-1
