$MeshFormat
2.2 0 8
$EndMeshFormat
$PhysicalNames
6
1 1 "outerR"
1 2 "outerL"
1 3 "outerT"
1 4 "outerB"
1 5 "abc"
2 6 "outer"
$EndPhysicalNames
$Nodes
160
1 -2 -2 0
2 2 -2 0
3 2 2 0
4 -2 2 0
5 -1 -1 0
6 1 -1 0
7 1 1 0
8 -1 1 0
9 -1 -2 0
10 -2 -1 0
11 1 -2 0
12 2 -1 0
13 1 2 0
14 2 1 0
15 -1 2 0
16 -2 1 0
17 1.25 1 0
18 1.5 1 0
19 1.75 1 0
20 1 1.25 0
21 1 1.5 0
22 1 1.75 0
23 -1 1.25 0
24 -1 1.5 0
25 -1 1.75 0
26 -1.25 1 0
27 -1.5 1 0
28 -1.75 1 0
29 -1.25 -1 0
30 -1.5 -1 0
31 -1.75 -1 0
32 -1 -1.25 0
33 -1 -1.5 0
34 -1 -1.75 0
35 1.25 -1 0
36 1.5 -1 0
37 1.75 -1 0
38 1 -1.25 0
39 1 -1.5 0
40 1 -1.75 0
41 1.25 -2 0
42 1.5 -2 0
43 1.75 -2 0
44 2 -1.75 0
45 2 -1.5 0
46 2 -1.25 0
47 2 -0.5000000000013867 0
48 2 -2.750244476601438e-12 0
49 2 0.499999999998614 0
50 2 1.25 0
51 2 1.5 0
52 2 1.75 0
53 1.75 2 0
54 1.5 2 0
55 1.25 2 0
56 0.5000000000013867 2 0
57 2.750244476601438e-12 2 0
58 -0.499999999998614 2 0
59 -1.25 2 0
60 -1.5 2 0
61 -1.75 2 0
62 -2 1.75 0
63 -2 1.5 0
64 -2 1.25 0
65 -2 0.5000000000013867 0
66 -2 2.750244476601438e-12 0
67 -2 -0.499999999998614 0
68 -2 -1.25 0
69 -2 -1.5 0
70 -2 -1.75 0
71 -1.75 -2 0
72 -1.5 -2 0
73 -1.25 -2 0
74 -0.5000000000013867 -2 0
75 -2.750244476601438e-12 -2 0
76 0.499999999998614 -2 0
77 1 0.5000000000013867 0
78 1 2.750244476601438e-12 0
79 1 -0.499999999998614 0
80 0.5000000000013867 -1 0
81 2.750244476601438e-12 -1 0
82 -0.499999999998614 -1 0
83 -1 -0.5000000000013867 0
84 -1 -2.750244476601438e-12 0
85 -1 0.499999999998614 0
86 -0.5000000000013867 1 0
87 -2.750244476601438e-12 1 0
88 0.499999999998614 1 0
89 1.25 -0.499999999999307 0
90 1.25 1.375122238300719e-12 0
91 1.25 0.5000000000006934 0
92 1.5 -0.5000000000000002 0
93 1.5 0 0
94 1.5 0.5000000000000003 0
95 1.75 -0.5000000000006934 0
96 1.75 -1.375122238300719e-12 0
97 1.75 0.4999999999993073 0
98 1.25 1.25 0
99 1.25 1.5 0
100 1.25 1.75 0
101 1.5 1.25 0
102 1.5 1.5 0
103 1.5 1.75 0
104 1.75 1.25 0
105 1.75 1.5 0
106 1.75 1.75 0
107 -0.5000000000006934 1.25 0
108 -0.5000000000000002 1.5 0
109 -0.499999999999307 1.75 0
110 -1.375122238300719e-12 1.25 0
111 0 1.5 0
112 1.375122238300719e-12 1.75 0
113 0.4999999999993073 1.25 0
114 0.5000000000000003 1.5 0
115 0.5000000000006934 1.75 0
116 -1.25 1.25 0
117 -1.25 1.5 0
118 -1.25 1.75 0
119 -1.5 1.25 0
120 -1.5 1.5 0
121 -1.5 1.75 0
122 -1.75 1.25 0
123 -1.75 1.5 0
124 -1.75 1.75 0
125 -1.25 -0.5000000000006934 0
126 -1.25 -1.375122238300719e-12 0
127 -1.25 0.4999999999993072 0
128 -1.5 -0.5000000000000002 0
129 -1.5 0 0
130 -1.5 0.5000000000000002 0
131 -1.75 -0.4999999999993073 0
132 -1.75 1.375122238300719e-12 0
133 -1.75 0.5000000000006934 0
134 -1.75 -1.75 0
135 -1.75 -1.5 0
136 -1.75 -1.25 0
137 -1.5 -1.75 0
138 -1.5 -1.5 0
139 -1.5 -1.25 0
140 -1.25 -1.75 0
141 -1.25 -1.5 0
142 -1.25 -1.25 0
143 -0.5000000000006934 -1.75 0
144 -0.5000000000000002 -1.5 0
145 -0.499999999999307 -1.25 0
146 -1.375122238300719e-12 -1.75 0
147 0 -1.5 0
148 1.375122238300719e-12 -1.25 0
149 0.4999999999993073 -1.75 0
150 0.5000000000000003 -1.5 0
151 0.5000000000006934 -1.25 0
152 1.25 -1.75 0
153 1.25 -1.5 0
154 1.25 -1.25 0
155 1.5 -1.75 0
156 1.5 -1.5 0
157 1.5 -1.25 0
158 1.75 -1.75 0
159 1.75 -1.5 0
160 1.75 -1.25 0
$EndNodes
$Elements
192
1 1 2 5 14 11 41
2 1 2 5 14 41 42
3 1 2 5 14 42 43
4 1 2 5 14 43 2
5 1 2 5 15 2 44
6 1 2 5 15 44 45
7 1 2 5 15 45 46
8 1 2 5 15 46 12
9 1 2 5 16 12 47
10 1 2 5 16 47 48
11 1 2 5 16 48 49
12 1 2 5 16 49 14
13 1 2 5 17 14 50
14 1 2 5 17 50 51
15 1 2 5 17 51 52
16 1 2 5 17 52 3
17 1 2 5 18 3 53
18 1 2 5 18 53 54
19 1 2 5 18 54 55
20 1 2 5 18 55 13
21 1 2 5 19 13 56
22 1 2 5 19 56 57
23 1 2 5 19 57 58
24 1 2 5 19 58 15
25 1 2 5 20 15 59
26 1 2 5 20 59 60
27 1 2 5 20 60 61
28 1 2 5 20 61 4
29 1 2 5 21 4 62
30 1 2 5 21 62 63
31 1 2 5 21 63 64
32 1 2 5 21 64 16
33 1 2 5 22 16 65
34 1 2 5 22 65 66
35 1 2 5 22 66 67
36 1 2 5 22 67 10
37 1 2 5 23 10 68
38 1 2 5 23 68 69
39 1 2 5 23 69 70
40 1 2 5 23 70 1
41 1 2 5 24 1 71
42 1 2 5 24 71 72
43 1 2 5 24 72 73
44 1 2 5 24 73 9
45 1 2 5 25 9 74
46 1 2 5 25 74 75
47 1 2 5 25 75 76
48 1 2 5 25 76 11
49 1 2 1 27 7 77
50 1 2 1 27 77 78
51 1 2 1 27 78 79
52 1 2 1 27 79 6
53 1 2 4 28 6 80
54 1 2 4 28 80 81
55 1 2 4 28 81 82
56 1 2 4 28 82 5
57 1 2 2 29 5 83
58 1 2 2 29 83 84
59 1 2 2 29 84 85
60 1 2 2 29 85 8
61 1 2 3 30 8 86
62 1 2 3 30 86 87
63 1 2 3 30 87 88
64 1 2 3 30 88 7
65 3 2 6 32 6 35 89 79
66 3 2 6 32 79 89 90 78
67 3 2 6 32 78 90 91 77
68 3 2 6 32 77 91 17 7
69 3 2 6 32 35 36 92 89
70 3 2 6 32 89 92 93 90
71 3 2 6 32 90 93 94 91
72 3 2 6 32 91 94 18 17
73 3 2 6 32 36 37 95 92
74 3 2 6 32 92 95 96 93
75 3 2 6 32 93 96 97 94
76 3 2 6 32 94 97 19 18
77 3 2 6 32 37 12 47 95
78 3 2 6 32 95 47 48 96
79 3 2 6 32 96 48 49 97
80 3 2 6 32 97 49 14 19
81 3 2 6 34 7 17 98 20
82 3 2 6 34 20 98 99 21
83 3 2 6 34 21 99 100 22
84 3 2 6 34 22 100 55 13
85 3 2 6 34 17 18 101 98
86 3 2 6 34 98 101 102 99
87 3 2 6 34 99 102 103 100
88 3 2 6 34 100 103 54 55
89 3 2 6 34 18 19 104 101
90 3 2 6 34 101 104 105 102
91 3 2 6 34 102 105 106 103
92 3 2 6 34 103 106 53 54
93 3 2 6 34 19 14 50 104
94 3 2 6 34 104 50 51 105
95 3 2 6 34 105 51 52 106
96 3 2 6 34 106 52 3 53
97 3 2 6 36 8 86 107 23
98 3 2 6 36 23 107 108 24
99 3 2 6 36 24 108 109 25
100 3 2 6 36 25 109 58 15
101 3 2 6 36 86 87 110 107
102 3 2 6 36 107 110 111 108
103 3 2 6 36 108 111 112 109
104 3 2 6 36 109 112 57 58
105 3 2 6 36 87 88 113 110
106 3 2 6 36 110 113 114 111
107 3 2 6 36 111 114 115 112
108 3 2 6 36 112 115 56 57
109 3 2 6 36 88 7 20 113
110 3 2 6 36 113 20 21 114
111 3 2 6 36 114 21 22 115
112 3 2 6 36 115 22 13 56
113 3 2 6 38 8 23 116 26
114 3 2 6 38 23 24 117 116
115 3 2 6 38 24 25 118 117
116 3 2 6 38 25 15 59 118
117 3 2 6 38 26 116 119 27
118 3 2 6 38 116 117 120 119
119 3 2 6 38 117 118 121 120
120 3 2 6 38 118 59 60 121
121 3 2 6 38 27 119 122 28
122 3 2 6 38 119 120 123 122
123 3 2 6 38 120 121 124 123
124 3 2 6 38 121 60 61 124
125 3 2 6 38 28 122 64 16
126 3 2 6 38 122 123 63 64
127 3 2 6 38 123 124 62 63
128 3 2 6 38 124 61 4 62
129 3 2 6 40 5 83 125 29
130 3 2 6 40 83 84 126 125
131 3 2 6 40 84 85 127 126
132 3 2 6 40 85 8 26 127
133 3 2 6 40 29 125 128 30
134 3 2 6 40 125 126 129 128
135 3 2 6 40 126 127 130 129
136 3 2 6 40 127 26 27 130
137 3 2 6 40 30 128 131 31
138 3 2 6 40 128 129 132 131
139 3 2 6 40 129 130 133 132
140 3 2 6 40 130 27 28 133
141 3 2 6 40 31 131 67 10
142 3 2 6 40 131 132 66 67
143 3 2 6 40 132 133 65 66
144 3 2 6 40 133 28 16 65
145 3 2 6 42 1 71 134 70
146 3 2 6 42 70 134 135 69
147 3 2 6 42 69 135 136 68
148 3 2 6 42 68 136 31 10
149 3 2 6 42 71 72 137 134
150 3 2 6 42 134 137 138 135
151 3 2 6 42 135 138 139 136
152 3 2 6 42 136 139 30 31
153 3 2 6 42 72 73 140 137
154 3 2 6 42 137 140 141 138
155 3 2 6 42 138 141 142 139
156 3 2 6 42 139 142 29 30
157 3 2 6 42 73 9 34 140
158 3 2 6 42 140 34 33 141
159 3 2 6 42 141 33 32 142
160 3 2 6 42 142 32 5 29
161 3 2 6 44 9 74 143 34
162 3 2 6 44 34 143 144 33
163 3 2 6 44 33 144 145 32
164 3 2 6 44 32 145 82 5
165 3 2 6 44 74 75 146 143
166 3 2 6 44 143 146 147 144
167 3 2 6 44 144 147 148 145
168 3 2 6 44 145 148 81 82
169 3 2 6 44 75 76 149 146
170 3 2 6 44 146 149 150 147
171 3 2 6 44 147 150 151 148
172 3 2 6 44 148 151 80 81
173 3 2 6 44 76 11 40 149
174 3 2 6 44 149 40 39 150
175 3 2 6 44 150 39 38 151
176 3 2 6 44 151 38 6 80
177 3 2 6 46 11 41 152 40
178 3 2 6 46 40 152 153 39
179 3 2 6 46 39 153 154 38
180 3 2 6 46 38 154 35 6
181 3 2 6 46 41 42 155 152
182 3 2 6 46 152 155 156 153
183 3 2 6 46 153 156 157 154
184 3 2 6 46 154 157 36 35
185 3 2 6 46 42 43 158 155
186 3 2 6 46 155 158 159 156
187 3 2 6 46 156 159 160 157
188 3 2 6 46 157 160 37 36
189 3 2 6 46 43 2 44 158
190 3 2 6 46 158 44 45 159
191 3 2 6 46 159 45 46 160
192 3 2 6 46 160 46 12 37
$EndElements
